^E:\MYPROGRAMS\1-OPENGLCLASS\OPENGL\PROGAMABLEPIPELINE\01-BLUESCREEN\DEBUG\OGL.OBJ
E:\MYPROGRAMS\1-OPENGLCLASS\OPENGL\PROGAMABLEPIPELINE\DEBUG\01-BLUESCREEN.EXE
E:\MYPROGRAMS\1-OPENGLCLASS\OPENGL\PROGAMABLEPIPELINE\DEBUG\01-BLUESCREEN.ILK
E:\MYPROGRAMS\1-OPENGLCLASS\OPENGL\PROGAMABLEPIPELINE\DEBUG\01-BLUESCREEN.PDB
