^E:\MYPROGRAMS\1-OPENGLCLASS\OPENGL\2-3D\55-SHAPES\SHAPESINPERSPECTIVE\FFPOGL.CPP
E:\MYPROGRAMS\1-OPENGLCLASS\OPENGL\2-3D\55-SHAPES\SHAPESINPERSPECTIVE\DEBUG\VC141.PDB
E:\MYPROGRAMS\1-OPENGLCLASS\OPENGL\2-3D\55-SHAPES\SHAPESINPERSPECTIVE\DEBUG\VC141.IDB
E:\MYPROGRAMS\1-OPENGLCLASS\OPENGL\2-3D\55-SHAPES\SHAPESINPERSPECTIVE\DEBUG\FFPOGL.OBJ
