﻿  Source.cpp
e:\myprograms\1-openglclass\opengl\progamablepipeline\04-perspectivewindow\perspectivetriangle\vmath.h(996): warning C4244: 'initializing': conversion from 'double' to 'float', possible loss of data
  PerspectiveTriangle.vcxproj -> E:\MyPrograms\1-OpenGLClass\opengl\ProgamablePipeline\04-PerspectiveWindow\Debug\PerspectiveTriangle.exe
