^E:\MYPROGRAMS\1-OPENGLCLASS\OPENGL\PROGAMABLEPIPELINE\04-PERSPECTIVEWINDOW\PERSPECTIVETRIANGLE\DEBUG\SOURCE.OBJ
E:\MYPROGRAMS\1-OPENGLCLASS\OPENGL\PROGAMABLEPIPELINE\04-PERSPECTIVEWINDOW\DEBUG\PERSPECTIVETRIANGLE.EXE
E:\MYPROGRAMS\1-OPENGLCLASS\OPENGL\PROGAMABLEPIPELINE\04-PERSPECTIVEWINDOW\DEBUG\PERSPECTIVETRIANGLE.ILK
E:\MYPROGRAMS\1-OPENGLCLASS\OPENGL\PROGAMABLEPIPELINE\04-PERSPECTIVEWINDOW\DEBUG\PERSPECTIVETRIANGLE.PDB
