^E:\MYPROGRAMS\1-OPENGLCLASS\OPENGL\PROGAMABLEPIPELINE\12-GRAPHPAPER\GRAPHPAPER\PPOGL.CPP
E:\MYPROGRAMS\1-OPENGLCLASS\OPENGL\PROGAMABLEPIPELINE\12-GRAPHPAPER\GRAPHPAPER\DEBUG\VC141.PDB
E:\MYPROGRAMS\1-OPENGLCLASS\OPENGL\PROGAMABLEPIPELINE\12-GRAPHPAPER\GRAPHPAPER\DEBUG\VC141.IDB
E:\MYPROGRAMS\1-OPENGLCLASS\OPENGL\PROGAMABLEPIPELINE\12-GRAPHPAPER\GRAPHPAPER\DEBUG\PPOGL.OBJ
