^E:\MYPROGRAMS\1-OPENGLCLASS\OPENGL\PROGAMABLEPIPELINE\14-DEATHLYHALLOWS\PPPROJECT\PPOGL.CPP
E:\MYPROGRAMS\1-OPENGLCLASS\OPENGL\PROGAMABLEPIPELINE\14-DEATHLYHALLOWS\PPPROJECT\DEBUG\VC141.PDB
E:\MYPROGRAMS\1-OPENGLCLASS\OPENGL\PROGAMABLEPIPELINE\14-DEATHLYHALLOWS\PPPROJECT\DEBUG\VC141.IDB
E:\MYPROGRAMS\1-OPENGLCLASS\OPENGL\PROGAMABLEPIPELINE\14-DEATHLYHALLOWS\PPPROJECT\DEBUG\PPOGL.OBJ
