^E:\MYPROGRAMS\1-OPENGLCLASS\OPENGL\PROGAMABLEPIPELINE\06-2DROTATION\ROTATION\PPOGL.CPP
E:\MYPROGRAMS\1-OPENGLCLASS\OPENGL\PROGAMABLEPIPELINE\06-2DROTATION\ROTATION\DEBUG\VC141.PDB
E:\MYPROGRAMS\1-OPENGLCLASS\OPENGL\PROGAMABLEPIPELINE\06-2DROTATION\ROTATION\DEBUG\VC141.IDB
E:\MYPROGRAMS\1-OPENGLCLASS\OPENGL\PROGAMABLEPIPELINE\06-2DROTATION\ROTATION\DEBUG\PPOGL.OBJ
